[gd_scene load_steps=3 format=2]

[ext_resource path="res://Assets/Board.tres" type="TileSet" id=1]
[ext_resource path="res://Assets/Pieces.tres" type="TileSet" id=2]

[node name="Node2D" type="Node2D"]

[node name="TileMap" type="TileMap" parent="."]
mode = 1
tile_set = ExtResource( 1 )
cell_size = Vector2( 32, 16 )
format = 1
tile_data = PoolIntArray( -196604, 0, 0, -196603, 0, 0, -196602, 0, 0, -131068, 0, 0, -131067, 0, 0, -131066, 0, 0, -65532, 0, 0, -65531, 0, 0, -65530, 0, 0, 131081, 0, 0, 131082, 0, 0, 131083, 0, 0, 196617, 0, 0, 196618, 0, 0, 196619, 0, 0, 262153, 0, 0, 262154, 0, 0, 262155, 0, 0, 458766, 0, 0, 458767, 0, 0, 458768, 0, 0, 524302, 0, 0, 524303, 0, 0, 524304, 0, 0, 589838, 0, 0, 589839, 0, 0, 589840, 0, 0, 786451, 0, 0, 786452, 0, 0, 786453, 0, 0, 851987, 0, 0, 851988, 0, 0, 851989, 0, 0, 917523, 0, 0, 917524, 0, 0, 917525, 0, 0, 1114136, 0, 0, 1114137, 0, 0, 1114138, 0, 0, 1179672, 0, 0, 1179673, 0, 0, 1179674, 0, 0, 1245208, 0, 0, 1245209, 0, 0, 1245210, 0, 0, 1441821, 0, 0, 1441822, 0, 0, 1441823, 0, 0, 1507357, 0, 0, 1507358, 0, 0, 1507359, 0, 0, 1572893, 0, 0, 1572894, 0, 0, 1572895, 0, 0, 1769506, 0, 0, 1769507, 0, 0, 1769508, 0, 0, 1835042, 0, 0, 1835043, 0, 0, 1835044, 0, 0, 1900578, 0, 0, 1900579, 0, 0, 1900580, 0, 0 )

[node name="TileMap2" type="TileMap" parent="."]
mode = 1
tile_set = ExtResource( 2 )
cell_size = Vector2( 32, 16 )
format = 1
tile_data = PoolIntArray( -196604, 0, 0, -196603, 0, 0, 65546, 0, 0, 131081, 3, 0, 131082, 0, 0, 196618, 0, 0, 393231, 2, 0, 458766, 4, 0, 524303, 2, 0, 786450, 3, 0, 786451, 0, 0, 786452, 1, 0, 1048600, 3, 0, 1114136, 2, 0, 1179672, 3, 0, 1376285, 0, 0, 1441820, 0, 0, 1441821, 1, 0, 1507357, 0, 0, 1703970, 1, 0, 1769506, 0, 0, 1835042, 1, 0 )

[node name="CanvasLayer" type="CanvasLayer" parent="."]
layer = -1

[node name="ColorRect" type="ColorRect" parent="CanvasLayer"]
margin_right = 1316.0
margin_bottom = 778.0
__meta__ = {
"_edit_use_anchors_": false
}
